%YAML 1.1
%TAG !u! tag:unity3d.com,2011:
--- !u!74 &7400000
AnimationClip:
  m_ObjectHideFlags: 0
  m_CorrespondingSourceObject: {fileID: 0}
  m_PrefabInstance: {fileID: 0}
  m_PrefabAsset: {fileID: 0}
  m_Name: Enemy_Explosion
  serializedVersion: 6
  m_Legacy: 0
  m_Compressed: 0
  m_UseHighQualityCurve: 1
  m_RotationCurves: []
  m_CompressedRotationCurves: []
  m_EulerCurves: []
  m_PositionCurves: []
  m_ScaleCurves: []
  m_FloatCurves: []
  m_PPtrCurves:
  - curve:
    - time: 0
      value: {fileID: 21300000, guid: 3154912113cbb4a498df6f571c74e18c, type: 3}
    - time: 0.016666668
      value: {fileID: 21300000, guid: 5939592cd9b9f4335a4ee907fa989be4, type: 3}
    - time: 0.033333335
      value: {fileID: 21300000, guid: 537930933d92c4333ae40c1d6d362b74, type: 3}
    - time: 0.05
      value: {fileID: 21300000, guid: c2e13c0c12b714179887597dd1d6b1f4, type: 3}
    - time: 0.06666667
      value: {fileID: 21300000, guid: f574bd8eb232a4689af64e1d5dc05a21, type: 3}
    - time: 0.083333336
      value: {fileID: 21300000, guid: 6f55af48c2b0a4aac993a217fcebe9d3, type: 3}
    - time: 0.1
      value: {fileID: 21300000, guid: 786597786c8f747a581a1bfb26411214, type: 3}
    - time: 0.11666667
      value: {fileID: 21300000, guid: 76f79295758ed42e08496e40465300ff, type: 3}
    - time: 0.13333334
      value: {fileID: 21300000, guid: 6e79bf9eae111464a948323374ce32f9, type: 3}
    - time: 0.15
      value: {fileID: 21300000, guid: 72fa818d45dda4ee998bda50180f1e96, type: 3}
    - time: 0.16666667
      value: {fileID: 21300000, guid: bdae25617687d4961a3b7a6a1b99da80, type: 3}
    - time: 0.18333334
      value: {fileID: 21300000, guid: 6680d84ea14cd490d94fca00dd42d17c, type: 3}
    - time: 0.2
      value: {fileID: 21300000, guid: 1236074791aa04c62a63bb23a805edf3, type: 3}
    - time: 0.21666667
      value: {fileID: 21300000, guid: cc29a104009564a12af656f2334002ca, type: 3}
    - time: 0.23333333
      value: {fileID: 21300000, guid: b1956f496b6494ef0b7d7233c595f193, type: 3}
    - time: 0.25
      value: {fileID: 21300000, guid: 653116d5db0fa4faeb2963cbd5038874, type: 3}
    - time: 0.26666668
      value: {fileID: 21300000, guid: 1290119f2b43a414f860b6224a41b855, type: 3}
    - time: 0.28333333
      value: {fileID: 21300000, guid: f6633d78a620e40ea8b3f0c1f7c0b8a2, type: 3}
    - time: 0.3
      value: {fileID: 21300000, guid: 84d1b40d1791a4703a24a3508945050d, type: 3}
    - time: 0.31666666
      value: {fileID: 21300000, guid: 4aad5b508acca4c28ab8297b99c80a38, type: 3}
    - time: 0.33333334
      value: {fileID: 21300000, guid: f77bd938fdae34726a4d72c41253bfe3, type: 3}
    - time: 0.35
      value: {fileID: 21300000, guid: b6f702cc69c29475281763ec8ae74c34, type: 3}
    - time: 0.36666667
      value: {fileID: 21300000, guid: d2b526d33b19b476084bea7e7af259c9, type: 3}
    - time: 0.38333333
      value: {fileID: 21300000, guid: eedb9448dfabd40908981ed6d9022d67, type: 3}
    - time: 0.4
      value: {fileID: 21300000, guid: 543e52a636fd448509dbdf7e477bf72f, type: 3}
    - time: 0.41666666
      value: {fileID: 21300000, guid: a00237563fc6a44aabd65df680e1f5ea, type: 3}
    - time: 0.43333334
      value: {fileID: 21300000, guid: 34a342ded83ad428c962af40193edb9a, type: 3}
    - time: 0.45
      value: {fileID: 21300000, guid: d1faac70da014416ab21c4b5cdbbedf7, type: 3}
    - time: 0.46666667
      value: {fileID: 21300000, guid: 544867a01983e4dd2a740a9bf0048d78, type: 3}
    - time: 0.48333332
      value: {fileID: 21300000, guid: c9941fea0f7974b23be80703b846e8b7, type: 3}
    - time: 0.5
      value: {fileID: 21300000, guid: 7b53d2e3915e84cf6bc46246ae29378a, type: 3}
    - time: 0.51666665
      value: {fileID: 21300000, guid: be16f9d18299740eba37f17f3ae13810, type: 3}
    - time: 0.53333336
      value: {fileID: 21300000, guid: 16d2453440200492bb01d83848828ff0, type: 3}
    - time: 0.55
      value: {fileID: 21300000, guid: 1fb4abcc5112843b781c36e11161368a, type: 3}
    - time: 0.56666666
      value: {fileID: 21300000, guid: aadf01a7300604b1e86e60b72f2562b1, type: 3}
    - time: 0.5833333
      value: {fileID: 21300000, guid: b509a8ae6478a4f67bc9d44a1941b1f8, type: 3}
    - time: 0.6
      value: {fileID: 21300000, guid: a9fb56b3dbef249f6a13b78ca405fdc2, type: 3}
    - time: 0.6166667
      value: {fileID: 21300000, guid: 70771fbb1e694440bb9c8b8fc991df83, type: 3}
    - time: 0.6333333
      value: {fileID: 21300000, guid: 02c5a4b748bf448068ce88ee258f80f2, type: 3}
    - time: 0.65
      value: {fileID: 21300000, guid: 8a6518b63895747809a33ab01016c111, type: 3}
    - time: 0.6666667
      value: {fileID: 21300000, guid: b610a9ad5fffa4591911a2f8c12cbd18, type: 3}
    - time: 0.68333334
      value: {fileID: 21300000, guid: 6b6248d611aa144fa8f77bf5e9710540, type: 3}
    - time: 0.7
      value: {fileID: 21300000, guid: faaa391c7b63142adbb8a89f20602b94, type: 3}
    - time: 0.71666664
      value: {fileID: 21300000, guid: 6d4c0556a3f974428932e40ffc448eb0, type: 3}
    - time: 0.73333335
      value: {fileID: 21300000, guid: 7539bb980ae3249f5882f08507b2cf5f, type: 3}
    - time: 0.75
      value: {fileID: 21300000, guid: 015cd6c0d2a804dcbb9ba6795aaaf09a, type: 3}
    - time: 0.76666665
      value: {fileID: 21300000, guid: 9f2a35d3736344c738af9f9b349edd42, type: 3}
    - time: 0.78333336
      value: {fileID: 21300000, guid: c2c519595e9f449f5ab702e9b5fda6c8, type: 3}
    - time: 0.8
      value: {fileID: 21300000, guid: 8d0a90868f6ec47d59cd644182ebff57, type: 3}
    - time: 0.81666666
      value: {fileID: 21300000, guid: c453a83e836c54cccbc997a20eb15988, type: 3}
    - time: 0.8333333
      value: {fileID: 21300000, guid: 6a8b3f96327a649b782eca76de0e14d1, type: 3}
    - time: 0.85
      value: {fileID: 21300000, guid: f6968cbb8d6ca4e97afd06cff1dde761, type: 3}
    - time: 0.8666667
      value: {fileID: 21300000, guid: 60d5ed7e416814a4aa9294515e67e0db, type: 3}
    - time: 0.8833333
      value: {fileID: 21300000, guid: 5971c78d2ecf64d6f8bd0d8ab26b9c91, type: 3}
    - time: 0.9
      value: {fileID: 21300000, guid: 39348fee8cea641e587e0f6cbecdac2a, type: 3}
    - time: 0.9166667
      value: {fileID: 21300000, guid: 51ffd65fe107b4da58e55b672c5d2b1a, type: 3}
    - time: 0.93333334
      value: {fileID: 21300000, guid: 1c0c33a0e41a44e25a55a971b7770919, type: 3}
    - time: 0.95
      value: {fileID: 21300000, guid: cd1014039b11546b5838e814a4085a1c, type: 3}
    - time: 0.96666664
      value: {fileID: 21300000, guid: c502cf324441c44eb9e358400809e67b, type: 3}
    - time: 0.98333335
      value: {fileID: 21300000, guid: 1557c12536b4041949a96067510ca924, type: 3}
    - time: 1
      value: {fileID: 21300000, guid: f06672bbc5ae14710b126ec6b288c9ff, type: 3}
    - time: 1.0166667
      value: {fileID: 21300000, guid: 85276638c32394575b591124b9d54777, type: 3}
    - time: 1.0333333
      value: {fileID: 21300000, guid: 339d69d7a341a4614928138acac61f1a, type: 3}
    - time: 1.05
      value: {fileID: 21300000, guid: f87c25168fe154cdb86b0679a3640b17, type: 3}
    - time: 1.0666667
      value: {fileID: 21300000, guid: 8dd8b300582a54fd0a488c352b56fc59, type: 3}
    - time: 1.0833334
      value: {fileID: 21300000, guid: 8abc14a23d39040a488923e56a4c8234, type: 3}
    - time: 1.1
      value: {fileID: 21300000, guid: af9587812f0bb40f098799624c76c70e, type: 3}
    - time: 1.1166667
      value: {fileID: 21300000, guid: 08df3257629e94ec6b11640058c08bac, type: 3}
    - time: 1.1333333
      value: {fileID: 21300000, guid: b7f5a08d971c6436a8d0d4dd27ce2025, type: 3}
    - time: 1.15
      value: {fileID: 21300000, guid: bcb5e531993e54c3f8212f84d29e06bb, type: 3}
    - time: 1.1666666
      value: {fileID: 21300000, guid: 692ff9f54522046a08b24dce97a8102e, type: 3}
    - time: 1.1833333
      value: {fileID: 21300000, guid: 2f5d425c73b7346deb66ad43bc36553c, type: 3}
    - time: 1.2
      value: {fileID: 21300000, guid: 67073c2aad0914e2da9b20030f0a9a8a, type: 3}
    - time: 1.2166667
      value: {fileID: 21300000, guid: 0074fdee9a2fb4e63b6051589b555bc9, type: 3}
    - time: 1.2333333
      value: {fileID: 21300000, guid: 5f57f87e317d74c1db1150cc6fc04ee3, type: 3}
    - time: 1.25
      value: {fileID: 21300000, guid: 4accd28ae0535453b9f439e93b9c0570, type: 3}
    - time: 1.2666667
      value: {fileID: 21300000, guid: d41ad13d659f84d1cac8ba0c4a0a26af, type: 3}
    - time: 1.2833333
      value: {fileID: 21300000, guid: 726517c70e04b473c808b0c93801b978, type: 3}
    - time: 1.3
      value: {fileID: 21300000, guid: 21c39e884b5f74a1f939dcb4393cf7e3, type: 3}
    - time: 1.3166667
      value: {fileID: 21300000, guid: 63bc29a8c12e6450893989f7f66125d5, type: 3}
    - time: 1.3333334
      value: {fileID: 21300000, guid: 32c2ea436317e4c43b983c79ea69a483, type: 3}
    - time: 1.35
      value: {fileID: 21300000, guid: 8df81356ffb824167b05eb24cb7744bb, type: 3}
    - time: 1.3666667
      value: {fileID: 21300000, guid: ff7e9cbddf7a947f9b41baa6aa502dfb, type: 3}
    - time: 1.3833333
      value: {fileID: 21300000, guid: aa0c3b038518544f8889cefb3c4845a5, type: 3}
    - time: 1.4
      value: {fileID: 21300000, guid: 659ac1fc34e1e48118fa898dbd4d3f4f, type: 3}
    - time: 1.4166666
      value: {fileID: 21300000, guid: 61fef248f5e454ae8a678a0e27817485, type: 3}
    - time: 1.4333333
      value: {fileID: 21300000, guid: 3080c3912b4aa48679391eaa83cabece, type: 3}
    - time: 1.45
      value: {fileID: 21300000, guid: 0f3789bda178c48f1878bd90da0d79fe, type: 3}
    - time: 1.4666667
      value: {fileID: 21300000, guid: 3919c0b26b48c445490500727b1400f5, type: 3}
    - time: 1.4833333
      value: {fileID: 21300000, guid: db64458106d6f4c14bc8e3c2d39cf8fb, type: 3}
    - time: 1.5
      value: {fileID: 21300000, guid: 7e429ad99b4ca41d696825f6567da7eb, type: 3}
    - time: 1.5166667
      value: {fileID: 21300000, guid: 6e86d453d9f144c98849647c76dddbd3, type: 3}
    - time: 1.5333333
      value: {fileID: 21300000, guid: 529aa54b27f9047d0a04bea0e2a94ea3, type: 3}
    - time: 1.55
      value: {fileID: 21300000, guid: 75bb75e0df2d4485f97d96511bd73be6, type: 3}
    - time: 1.5666667
      value: {fileID: 21300000, guid: 0f00272c9f57a470b89cb4fd7dc1e2eb, type: 3}
    - time: 1.5833334
      value: {fileID: 21300000, guid: 5838e75ba802b46c1a9b6dad283a9cb0, type: 3}
    - time: 1.6
      value: {fileID: 21300000, guid: 668162a062acf44dd893a50281735f81, type: 3}
    - time: 1.6166667
      value: {fileID: 21300000, guid: 9298138094a664f57b0915c4e7818bda, type: 3}
    - time: 1.6333333
      value: {fileID: 21300000, guid: 9dd317c10b983447a83f82b7fef4d633, type: 3}
    - time: 1.65
      value: {fileID: 21300000, guid: a04706569351f4bf9adc423faef55488, type: 3}
    - time: 1.6666666
      value: {fileID: 21300000, guid: ad76325917e9443eb9a0f09728104711, type: 3}
    - time: 1.6833333
      value: {fileID: 21300000, guid: af1144ebb37084f718fe8f461ff82e79, type: 3}
    - time: 1.7
      value: {fileID: 21300000, guid: d365eab4b4040481e8e8fcbb22555f4a, type: 3}
    - time: 1.7166667
      value: {fileID: 21300000, guid: 211774765226242d6a63c6380787acb6, type: 3}
    - time: 1.7333333
      value: {fileID: 21300000, guid: 211774765226242d6a63c6380787acb6, type: 3}
    - time: 1.75
      value: {fileID: 21300000, guid: 83deed78386d64b15b381c059bac0601, type: 3}
    - time: 1.7666667
      value: {fileID: 21300000, guid: 786d05a5be1e349c68d9ee58c9f9d865, type: 3}
    - time: 1.7833333
      value: {fileID: 21300000, guid: 7f359ba8c425c4e85b19b3bc000a892d, type: 3}
    - time: 1.8
      value: {fileID: 21300000, guid: f688bc61c8cc54009a0a59c31009a811, type: 3}
    - time: 1.8166667
      value: {fileID: 21300000, guid: bb51d9105de0a4dc192aef6dab9653f9, type: 3}
    - time: 1.8333334
      value: {fileID: 21300000, guid: 3a67a88a3a0724d37ab734aed24934b6, type: 3}
    - time: 1.85
      value: {fileID: 21300000, guid: 71ada7049ab5a4ced96b18a473c088f1, type: 3}
    - time: 1.8666667
      value: {fileID: 21300000, guid: ec0b64152df0746558b6de5443e91b79, type: 3}
    - time: 1.8833333
      value: {fileID: 21300000, guid: ebca4c98ce94943b3ac643f52e4fc7fd, type: 3}
    - time: 1.9
      value: {fileID: 21300000, guid: 44b3a19248f774d4b852354203f80989, type: 3}
    - time: 1.9166666
      value: {fileID: 21300000, guid: 4f8e10640a4d14b3d815bc3c49332951, type: 3}
    - time: 1.9333333
      value: {fileID: 21300000, guid: c2708ced8d00b40e9b87fafdf60159c9, type: 3}
    - time: 1.95
      value: {fileID: 21300000, guid: c3e4898607a8d4fa2aef499aaeef35bf, type: 3}
    - time: 1.9666667
      value: {fileID: 21300000, guid: 982681ebc21cd419b9c9de6faba01ac7, type: 3}
    - time: 1.9833333
      value: {fileID: 21300000, guid: 4d1b489714fa543689153fc1c37a9479, type: 3}
    - time: 2
      value: {fileID: 21300000, guid: b567d3f65133f4011bac3e2cd1c5b42a, type: 3}
    - time: 2.0166667
      value: {fileID: 21300000, guid: 998388ba3fe8948a38c5bdc4c0a07ddd, type: 3}
    - time: 2.0333333
      value: {fileID: 21300000, guid: 66cd051153bd041f69be2ffb6ac55681, type: 3}
    - time: 2.05
      value: {fileID: 21300000, guid: 4fc7aea7e466448f0a7919d2e737d4fb, type: 3}
    - time: 2.0666666
      value: {fileID: 21300000, guid: eb44280d0a1054ef3af7b2851fd1fe16, type: 3}
    - time: 2.0833333
      value: {fileID: 21300000, guid: fce84c92f155849cb998a2a6665c70c1, type: 3}
    - time: 2.1
      value: {fileID: 21300000, guid: 74167e4b7250743fba6b50a1c6599904, type: 3}
    - time: 2.1166666
      value: {fileID: 21300000, guid: ed02b2f1fa67c40fda260268b9bb1765, type: 3}
    - time: 2.1333334
      value: {fileID: 21300000, guid: f688a9a1039c64add9dc2efc955dcdfc, type: 3}
    - time: 2.15
      value: {fileID: 21300000, guid: d45eae35d3b4446a2b8c6e20d26853ea, type: 3}
    - time: 2.1666667
      value: {fileID: 21300000, guid: 14449546fc0374a39b8756c3526a57a6, type: 3}
    - time: 2.1833334
      value: {fileID: 21300000, guid: 204219265ff234b29a02de351879e27b, type: 3}
    - time: 2.2
      value: {fileID: 21300000, guid: 33a3eeb20308c4c789324a42ed6990eb, type: 3}
    - time: 2.2166667
      value: {fileID: 21300000, guid: 492b613d1262b446f8c8e5130a4aaf8f, type: 3}
    - time: 2.2333333
      value: {fileID: 21300000, guid: 1151a885ef3de475983a9c99a7700a56, type: 3}
    - time: 2.25
      value: {fileID: 21300000, guid: 021bf02f0f8b249ae81d8583c17f2c5c, type: 3}
    - time: 2.2666667
      value: {fileID: 21300000, guid: 97b6ff619964d47f084862f447c9b737, type: 3}
    - time: 2.2833333
      value: {fileID: 21300000, guid: ad33bc097a57f46b4aa7b996a05f2380, type: 3}
    - time: 2.3
      value: {fileID: 21300000, guid: 3e75dbe822c0d4380b358313f1def549, type: 3}
    - time: 2.3166666
      value: {fileID: 21300000, guid: 21419a1c4500a4dd2acc2fb59ca93f5f, type: 3}
    - time: 2.3333333
      value: {fileID: 21300000, guid: 4a0f9bcc3cd534cf2be391e8656bfffe, type: 3}
    - time: 2.35
      value: {fileID: 21300000, guid: 49e3717e3ec844273bb5bb7dcda8600d, type: 3}
    - time: 2.3666666
      value: {fileID: 21300000, guid: 6229f2e9facb04598a4ad936d7706937, type: 3}
    - time: 2.3833334
      value: {fileID: 21300000, guid: e074f570f1116472f81285fffb357e2c, type: 3}
    - time: 2.4
      value: {fileID: 21300000, guid: 84643580c143947d693b68e50d125c6d, type: 3}
    - time: 2.4166667
      value: {fileID: 21300000, guid: afef5f3dfcf5b46dabc39a648574cf2e, type: 3}
    - time: 2.4333334
      value: {fileID: 21300000, guid: 7a9d67c43709d428585c006de18dd2b1, type: 3}
    - time: 2.45
      value: {fileID: 21300000, guid: 01f3a146967724f9ea412d80618110bb, type: 3}
    - time: 2.4666667
      value: {fileID: 21300000, guid: 563d3f5cdcb084b09ae82ae4b9d719bb, type: 3}
    - time: 2.4833333
      value: {fileID: 21300000, guid: 70e162b6c360844aa951ab4b8bfec52a, type: 3}
    - time: 2.5
      value: {fileID: 21300000, guid: 9549b75f7c04a4bf7bac0388bcbc7022, type: 3}
    - time: 2.5166667
      value: {fileID: 21300000, guid: 1a180dbb0fec44f4a857c1c3316cedab, type: 3}
    - time: 2.5333333
      value: {fileID: 21300000, guid: 1edb4666dbc704d80ae3a8aac3d9660c, type: 3}
    - time: 2.55
      value: {fileID: 21300000, guid: 9cbfa30af0595438aa7f3ed039ddf5dd, type: 3}
    - time: 2.5666666
      value: {fileID: 21300000, guid: 869ae0243a6794051ba8f7f17071efcf, type: 3}
    - time: 2.5833333
      value: {fileID: 21300000, guid: 19828cf3366fc475a8ea1b67f0b1ad4d, type: 3}
    - time: 2.6
      value: {fileID: 21300000, guid: cc6d7a7e57d2744b2a1f2ec16526d075, type: 3}
    - time: 2.6166666
      value: {fileID: 21300000, guid: 49d4d83cd54cd441791066d89453e22a, type: 3}
    - time: 2.6333334
      value: {fileID: 21300000, guid: d23e2f57007dc4330bcbb17700957c97, type: 3}
    attribute: m_Sprite
    path: 
    classID: 212
    script: {fileID: 0}
  m_SampleRate: 60
  m_WrapMode: 0
  m_Bounds:
    m_Center: {x: 0, y: 0, z: 0}
    m_Extent: {x: 0, y: 0, z: 0}
  m_ClipBindingConstant:
    genericBindings:
    - serializedVersion: 2
      path: 0
      attribute: 0
      script: {fileID: 0}
      typeID: 212
      customType: 23
      isPPtrCurve: 1
    pptrCurveMapping:
    - {fileID: 21300000, guid: 3154912113cbb4a498df6f571c74e18c, type: 3}
    - {fileID: 21300000, guid: 5939592cd9b9f4335a4ee907fa989be4, type: 3}
    - {fileID: 21300000, guid: 537930933d92c4333ae40c1d6d362b74, type: 3}
    - {fileID: 21300000, guid: c2e13c0c12b714179887597dd1d6b1f4, type: 3}
    - {fileID: 21300000, guid: f574bd8eb232a4689af64e1d5dc05a21, type: 3}
    - {fileID: 21300000, guid: 6f55af48c2b0a4aac993a217fcebe9d3, type: 3}
    - {fileID: 21300000, guid: 786597786c8f747a581a1bfb26411214, type: 3}
    - {fileID: 21300000, guid: 76f79295758ed42e08496e40465300ff, type: 3}
    - {fileID: 21300000, guid: 6e79bf9eae111464a948323374ce32f9, type: 3}
    - {fileID: 21300000, guid: 72fa818d45dda4ee998bda50180f1e96, type: 3}
    - {fileID: 21300000, guid: bdae25617687d4961a3b7a6a1b99da80, type: 3}
    - {fileID: 21300000, guid: 6680d84ea14cd490d94fca00dd42d17c, type: 3}
    - {fileID: 21300000, guid: 1236074791aa04c62a63bb23a805edf3, type: 3}
    - {fileID: 21300000, guid: cc29a104009564a12af656f2334002ca, type: 3}
    - {fileID: 21300000, guid: b1956f496b6494ef0b7d7233c595f193, type: 3}
    - {fileID: 21300000, guid: 653116d5db0fa4faeb2963cbd5038874, type: 3}
    - {fileID: 21300000, guid: 1290119f2b43a414f860b6224a41b855, type: 3}
    - {fileID: 21300000, guid: f6633d78a620e40ea8b3f0c1f7c0b8a2, type: 3}
    - {fileID: 21300000, guid: 84d1b40d1791a4703a24a3508945050d, type: 3}
    - {fileID: 21300000, guid: 4aad5b508acca4c28ab8297b99c80a38, type: 3}
    - {fileID: 21300000, guid: f77bd938fdae34726a4d72c41253bfe3, type: 3}
    - {fileID: 21300000, guid: b6f702cc69c29475281763ec8ae74c34, type: 3}
    - {fileID: 21300000, guid: d2b526d33b19b476084bea7e7af259c9, type: 3}
    - {fileID: 21300000, guid: eedb9448dfabd40908981ed6d9022d67, type: 3}
    - {fileID: 21300000, guid: 543e52a636fd448509dbdf7e477bf72f, type: 3}
    - {fileID: 21300000, guid: a00237563fc6a44aabd65df680e1f5ea, type: 3}
    - {fileID: 21300000, guid: 34a342ded83ad428c962af40193edb9a, type: 3}
    - {fileID: 21300000, guid: d1faac70da014416ab21c4b5cdbbedf7, type: 3}
    - {fileID: 21300000, guid: 544867a01983e4dd2a740a9bf0048d78, type: 3}
    - {fileID: 21300000, guid: c9941fea0f7974b23be80703b846e8b7, type: 3}
    - {fileID: 21300000, guid: 7b53d2e3915e84cf6bc46246ae29378a, type: 3}
    - {fileID: 21300000, guid: be16f9d18299740eba37f17f3ae13810, type: 3}
    - {fileID: 21300000, guid: 16d2453440200492bb01d83848828ff0, type: 3}
    - {fileID: 21300000, guid: 1fb4abcc5112843b781c36e11161368a, type: 3}
    - {fileID: 21300000, guid: aadf01a7300604b1e86e60b72f2562b1, type: 3}
    - {fileID: 21300000, guid: b509a8ae6478a4f67bc9d44a1941b1f8, type: 3}
    - {fileID: 21300000, guid: a9fb56b3dbef249f6a13b78ca405fdc2, type: 3}
    - {fileID: 21300000, guid: 70771fbb1e694440bb9c8b8fc991df83, type: 3}
    - {fileID: 21300000, guid: 02c5a4b748bf448068ce88ee258f80f2, type: 3}
    - {fileID: 21300000, guid: 8a6518b63895747809a33ab01016c111, type: 3}
    - {fileID: 21300000, guid: b610a9ad5fffa4591911a2f8c12cbd18, type: 3}
    - {fileID: 21300000, guid: 6b6248d611aa144fa8f77bf5e9710540, type: 3}
    - {fileID: 21300000, guid: faaa391c7b63142adbb8a89f20602b94, type: 3}
    - {fileID: 21300000, guid: 6d4c0556a3f974428932e40ffc448eb0, type: 3}
    - {fileID: 21300000, guid: 7539bb980ae3249f5882f08507b2cf5f, type: 3}
    - {fileID: 21300000, guid: 015cd6c0d2a804dcbb9ba6795aaaf09a, type: 3}
    - {fileID: 21300000, guid: 9f2a35d3736344c738af9f9b349edd42, type: 3}
    - {fileID: 21300000, guid: c2c519595e9f449f5ab702e9b5fda6c8, type: 3}
    - {fileID: 21300000, guid: 8d0a90868f6ec47d59cd644182ebff57, type: 3}
    - {fileID: 21300000, guid: c453a83e836c54cccbc997a20eb15988, type: 3}
    - {fileID: 21300000, guid: 6a8b3f96327a649b782eca76de0e14d1, type: 3}
    - {fileID: 21300000, guid: f6968cbb8d6ca4e97afd06cff1dde761, type: 3}
    - {fileID: 21300000, guid: 60d5ed7e416814a4aa9294515e67e0db, type: 3}
    - {fileID: 21300000, guid: 5971c78d2ecf64d6f8bd0d8ab26b9c91, type: 3}
    - {fileID: 21300000, guid: 39348fee8cea641e587e0f6cbecdac2a, type: 3}
    - {fileID: 21300000, guid: 51ffd65fe107b4da58e55b672c5d2b1a, type: 3}
    - {fileID: 21300000, guid: 1c0c33a0e41a44e25a55a971b7770919, type: 3}
    - {fileID: 21300000, guid: cd1014039b11546b5838e814a4085a1c, type: 3}
    - {fileID: 21300000, guid: c502cf324441c44eb9e358400809e67b, type: 3}
    - {fileID: 21300000, guid: 1557c12536b4041949a96067510ca924, type: 3}
    - {fileID: 21300000, guid: f06672bbc5ae14710b126ec6b288c9ff, type: 3}
    - {fileID: 21300000, guid: 85276638c32394575b591124b9d54777, type: 3}
    - {fileID: 21300000, guid: 339d69d7a341a4614928138acac61f1a, type: 3}
    - {fileID: 21300000, guid: f87c25168fe154cdb86b0679a3640b17, type: 3}
    - {fileID: 21300000, guid: 8dd8b300582a54fd0a488c352b56fc59, type: 3}
    - {fileID: 21300000, guid: 8abc14a23d39040a488923e56a4c8234, type: 3}
    - {fileID: 21300000, guid: af9587812f0bb40f098799624c76c70e, type: 3}
    - {fileID: 21300000, guid: 08df3257629e94ec6b11640058c08bac, type: 3}
    - {fileID: 21300000, guid: b7f5a08d971c6436a8d0d4dd27ce2025, type: 3}
    - {fileID: 21300000, guid: bcb5e531993e54c3f8212f84d29e06bb, type: 3}
    - {fileID: 21300000, guid: 692ff9f54522046a08b24dce97a8102e, type: 3}
    - {fileID: 21300000, guid: 2f5d425c73b7346deb66ad43bc36553c, type: 3}
    - {fileID: 21300000, guid: 67073c2aad0914e2da9b20030f0a9a8a, type: 3}
    - {fileID: 21300000, guid: 0074fdee9a2fb4e63b6051589b555bc9, type: 3}
    - {fileID: 21300000, guid: 5f57f87e317d74c1db1150cc6fc04ee3, type: 3}
    - {fileID: 21300000, guid: 4accd28ae0535453b9f439e93b9c0570, type: 3}
    - {fileID: 21300000, guid: d41ad13d659f84d1cac8ba0c4a0a26af, type: 3}
    - {fileID: 21300000, guid: 726517c70e04b473c808b0c93801b978, type: 3}
    - {fileID: 21300000, guid: 21c39e884b5f74a1f939dcb4393cf7e3, type: 3}
    - {fileID: 21300000, guid: 63bc29a8c12e6450893989f7f66125d5, type: 3}
    - {fileID: 21300000, guid: 32c2ea436317e4c43b983c79ea69a483, type: 3}
    - {fileID: 21300000, guid: 8df81356ffb824167b05eb24cb7744bb, type: 3}
    - {fileID: 21300000, guid: ff7e9cbddf7a947f9b41baa6aa502dfb, type: 3}
    - {fileID: 21300000, guid: aa0c3b038518544f8889cefb3c4845a5, type: 3}
    - {fileID: 21300000, guid: 659ac1fc34e1e48118fa898dbd4d3f4f, type: 3}
    - {fileID: 21300000, guid: 61fef248f5e454ae8a678a0e27817485, type: 3}
    - {fileID: 21300000, guid: 3080c3912b4aa48679391eaa83cabece, type: 3}
    - {fileID: 21300000, guid: 0f3789bda178c48f1878bd90da0d79fe, type: 3}
    - {fileID: 21300000, guid: 3919c0b26b48c445490500727b1400f5, type: 3}
    - {fileID: 21300000, guid: db64458106d6f4c14bc8e3c2d39cf8fb, type: 3}
    - {fileID: 21300000, guid: 7e429ad99b4ca41d696825f6567da7eb, type: 3}
    - {fileID: 21300000, guid: 6e86d453d9f144c98849647c76dddbd3, type: 3}
    - {fileID: 21300000, guid: 529aa54b27f9047d0a04bea0e2a94ea3, type: 3}
    - {fileID: 21300000, guid: 75bb75e0df2d4485f97d96511bd73be6, type: 3}
    - {fileID: 21300000, guid: 0f00272c9f57a470b89cb4fd7dc1e2eb, type: 3}
    - {fileID: 21300000, guid: 5838e75ba802b46c1a9b6dad283a9cb0, type: 3}
    - {fileID: 21300000, guid: 668162a062acf44dd893a50281735f81, type: 3}
    - {fileID: 21300000, guid: 9298138094a664f57b0915c4e7818bda, type: 3}
    - {fileID: 21300000, guid: 9dd317c10b983447a83f82b7fef4d633, type: 3}
    - {fileID: 21300000, guid: a04706569351f4bf9adc423faef55488, type: 3}
    - {fileID: 21300000, guid: ad76325917e9443eb9a0f09728104711, type: 3}
    - {fileID: 21300000, guid: af1144ebb37084f718fe8f461ff82e79, type: 3}
    - {fileID: 21300000, guid: d365eab4b4040481e8e8fcbb22555f4a, type: 3}
    - {fileID: 21300000, guid: 211774765226242d6a63c6380787acb6, type: 3}
    - {fileID: 21300000, guid: 211774765226242d6a63c6380787acb6, type: 3}
    - {fileID: 21300000, guid: 83deed78386d64b15b381c059bac0601, type: 3}
    - {fileID: 21300000, guid: 786d05a5be1e349c68d9ee58c9f9d865, type: 3}
    - {fileID: 21300000, guid: 7f359ba8c425c4e85b19b3bc000a892d, type: 3}
    - {fileID: 21300000, guid: f688bc61c8cc54009a0a59c31009a811, type: 3}
    - {fileID: 21300000, guid: bb51d9105de0a4dc192aef6dab9653f9, type: 3}
    - {fileID: 21300000, guid: 3a67a88a3a0724d37ab734aed24934b6, type: 3}
    - {fileID: 21300000, guid: 71ada7049ab5a4ced96b18a473c088f1, type: 3}
    - {fileID: 21300000, guid: ec0b64152df0746558b6de5443e91b79, type: 3}
    - {fileID: 21300000, guid: ebca4c98ce94943b3ac643f52e4fc7fd, type: 3}
    - {fileID: 21300000, guid: 44b3a19248f774d4b852354203f80989, type: 3}
    - {fileID: 21300000, guid: 4f8e10640a4d14b3d815bc3c49332951, type: 3}
    - {fileID: 21300000, guid: c2708ced8d00b40e9b87fafdf60159c9, type: 3}
    - {fileID: 21300000, guid: c3e4898607a8d4fa2aef499aaeef35bf, type: 3}
    - {fileID: 21300000, guid: 982681ebc21cd419b9c9de6faba01ac7, type: 3}
    - {fileID: 21300000, guid: 4d1b489714fa543689153fc1c37a9479, type: 3}
    - {fileID: 21300000, guid: b567d3f65133f4011bac3e2cd1c5b42a, type: 3}
    - {fileID: 21300000, guid: 998388ba3fe8948a38c5bdc4c0a07ddd, type: 3}
    - {fileID: 21300000, guid: 66cd051153bd041f69be2ffb6ac55681, type: 3}
    - {fileID: 21300000, guid: 4fc7aea7e466448f0a7919d2e737d4fb, type: 3}
    - {fileID: 21300000, guid: eb44280d0a1054ef3af7b2851fd1fe16, type: 3}
    - {fileID: 21300000, guid: fce84c92f155849cb998a2a6665c70c1, type: 3}
    - {fileID: 21300000, guid: 74167e4b7250743fba6b50a1c6599904, type: 3}
    - {fileID: 21300000, guid: ed02b2f1fa67c40fda260268b9bb1765, type: 3}
    - {fileID: 21300000, guid: f688a9a1039c64add9dc2efc955dcdfc, type: 3}
    - {fileID: 21300000, guid: d45eae35d3b4446a2b8c6e20d26853ea, type: 3}
    - {fileID: 21300000, guid: 14449546fc0374a39b8756c3526a57a6, type: 3}
    - {fileID: 21300000, guid: 204219265ff234b29a02de351879e27b, type: 3}
    - {fileID: 21300000, guid: 33a3eeb20308c4c789324a42ed6990eb, type: 3}
    - {fileID: 21300000, guid: 492b613d1262b446f8c8e5130a4aaf8f, type: 3}
    - {fileID: 21300000, guid: 1151a885ef3de475983a9c99a7700a56, type: 3}
    - {fileID: 21300000, guid: 021bf02f0f8b249ae81d8583c17f2c5c, type: 3}
    - {fileID: 21300000, guid: 97b6ff619964d47f084862f447c9b737, type: 3}
    - {fileID: 21300000, guid: ad33bc097a57f46b4aa7b996a05f2380, type: 3}
    - {fileID: 21300000, guid: 3e75dbe822c0d4380b358313f1def549, type: 3}
    - {fileID: 21300000, guid: 21419a1c4500a4dd2acc2fb59ca93f5f, type: 3}
    - {fileID: 21300000, guid: 4a0f9bcc3cd534cf2be391e8656bfffe, type: 3}
    - {fileID: 21300000, guid: 49e3717e3ec844273bb5bb7dcda8600d, type: 3}
    - {fileID: 21300000, guid: 6229f2e9facb04598a4ad936d7706937, type: 3}
    - {fileID: 21300000, guid: e074f570f1116472f81285fffb357e2c, type: 3}
    - {fileID: 21300000, guid: 84643580c143947d693b68e50d125c6d, type: 3}
    - {fileID: 21300000, guid: afef5f3dfcf5b46dabc39a648574cf2e, type: 3}
    - {fileID: 21300000, guid: 7a9d67c43709d428585c006de18dd2b1, type: 3}
    - {fileID: 21300000, guid: 01f3a146967724f9ea412d80618110bb, type: 3}
    - {fileID: 21300000, guid: 563d3f5cdcb084b09ae82ae4b9d719bb, type: 3}
    - {fileID: 21300000, guid: 70e162b6c360844aa951ab4b8bfec52a, type: 3}
    - {fileID: 21300000, guid: 9549b75f7c04a4bf7bac0388bcbc7022, type: 3}
    - {fileID: 21300000, guid: 1a180dbb0fec44f4a857c1c3316cedab, type: 3}
    - {fileID: 21300000, guid: 1edb4666dbc704d80ae3a8aac3d9660c, type: 3}
    - {fileID: 21300000, guid: 9cbfa30af0595438aa7f3ed039ddf5dd, type: 3}
    - {fileID: 21300000, guid: 869ae0243a6794051ba8f7f17071efcf, type: 3}
    - {fileID: 21300000, guid: 19828cf3366fc475a8ea1b67f0b1ad4d, type: 3}
    - {fileID: 21300000, guid: cc6d7a7e57d2744b2a1f2ec16526d075, type: 3}
    - {fileID: 21300000, guid: 49d4d83cd54cd441791066d89453e22a, type: 3}
    - {fileID: 21300000, guid: d23e2f57007dc4330bcbb17700957c97, type: 3}
  m_AnimationClipSettings:
    serializedVersion: 2
    m_AdditiveReferencePoseClip: {fileID: 0}
    m_AdditiveReferencePoseTime: 0
    m_StartTime: 0
    m_StopTime: 2.65
    m_OrientationOffsetY: 0
    m_Level: 0
    m_CycleOffset: 0
    m_HasAdditiveReferencePose: 0
    m_LoopTime: 0
    m_LoopBlend: 0
    m_LoopBlendOrientation: 0
    m_LoopBlendPositionY: 0
    m_LoopBlendPositionXZ: 0
    m_KeepOriginalOrientation: 0
    m_KeepOriginalPositionY: 1
    m_KeepOriginalPositionXZ: 0
    m_HeightFromFeet: 0
    m_Mirror: 0
  m_EditorCurves: []
  m_EulerEditorCurves: []
  m_HasGenericRootTransform: 0
  m_HasMotionFloatCurves: 0
  m_Events: []
