%YAML 1.1
%TAG !u! tag:unity3d.com,2011:
--- !u!1045 &1
EditorBuildSettings:
  m_ObjectHideFlags: 0
  serializedVersion: 2
  m_Scenes:
  - enabled: 1
    path: Assets/_Scenes/Main_Menu.unity
    guid: 3dc232e55a1ccad469ffff2001e31090
  - enabled: 1
    path: Assets/_Scenes/Single_Player.unity
    guid: d5ba53d2f59ed1048ba0002b24aaee5f
  - enabled: 1
    path: Assets/_Scenes/Co-op_Mode.unity
    guid: 56abd8f4c3f72a14196ddc6e81730bc3
  m_configObjects: {}
